…
Climate change and temperature anomalies

To study climate change, we found data on the Combined Land-Surface Air and Sea-Surface Water Temperature Anomalies in the Northern Hemisphere at NASA’s Goddard Institute for Space Studies.

The first step was to import the messy data which can be seen below

## # A tibble: 140 x 19
##     Year   Jan    Feb    Mar   Apr   May   Jun   Jul   Aug   Sep   Oct   Nov
##    <dbl> <dbl>  <dbl>  <dbl> <dbl> <dbl> <dbl> <dbl> <dbl> <dbl> <dbl> <dbl>
##  1  1880 -0.54 -0.38  -0.26  -0.37 -0.11 -0.22 -0.23 -0.24 -0.26 -0.32 -0.37
##  2  1881 -0.19 -0.25   0.02  -0.02 -0.06 -0.36 -0.06 -0.03 -0.23 -0.4  -0.42
##  3  1882  0.22  0.22   0     -0.36 -0.32 -0.38 -0.37 -0.14 -0.17 -0.53 -0.32
##  4  1883 -0.59 -0.67  -0.16  -0.27 -0.32 -0.26 -0.09 -0.26 -0.33 -0.21 -0.4 
##  5  1884 -0.23 -0.11  -0.65  -0.62 -0.42 -0.52 -0.48 -0.5  -0.45 -0.41 -0.48
##  6  1885 -1    -0.37  -0.21  -0.53 -0.55 -0.47 -0.39 -0.44 -0.32 -0.3  -0.28
##  7  1886 -0.68 -0.68  -0.570 -0.34 -0.34 -0.43 -0.2  -0.47 -0.34 -0.31 -0.45
##  8  1887 -1.07 -0.580 -0.36  -0.42 -0.27 -0.2  -0.23 -0.52 -0.17 -0.4  -0.19
##  9  1888 -0.53 -0.59  -0.580 -0.24 -0.16 -0.04  0.04 -0.19 -0.12  0.04 -0.03
## 10  1889 -0.31  0.35   0.07   0.15 -0.05 -0.12 -0.1  -0.16 -0.26 -0.34 -0.61
## # ... with 130 more rows, and 7 more variables: Dec <dbl>, `J-D` <dbl>,
## #   `D-N` <dbl>, DJF <dbl>, MAM <dbl>, JJA <dbl>, SON <dbl>

Next, we cleaned the dataset - discarded unwanted columns and converted the wide format to a long format.

## # A tibble: 140 x 13
##     Year   Jan    Feb    Mar   Apr   May   Jun   Jul   Aug   Sep   Oct   Nov
##    <dbl> <dbl>  <dbl>  <dbl> <dbl> <dbl> <dbl> <dbl> <dbl> <dbl> <dbl> <dbl>
##  1  1880 -0.54 -0.38  -0.26  -0.37 -0.11 -0.22 -0.23 -0.24 -0.26 -0.32 -0.37
##  2  1881 -0.19 -0.25   0.02  -0.02 -0.06 -0.36 -0.06 -0.03 -0.23 -0.4  -0.42
##  3  1882  0.22  0.22   0     -0.36 -0.32 -0.38 -0.37 -0.14 -0.17 -0.53 -0.32
##  4  1883 -0.59 -0.67  -0.16  -0.27 -0.32 -0.26 -0.09 -0.26 -0.33 -0.21 -0.4 
##  5  1884 -0.23 -0.11  -0.65  -0.62 -0.42 -0.52 -0.48 -0.5  -0.45 -0.41 -0.48
##  6  1885 -1    -0.37  -0.21  -0.53 -0.55 -0.47 -0.39 -0.44 -0.32 -0.3  -0.28
##  7  1886 -0.68 -0.68  -0.570 -0.34 -0.34 -0.43 -0.2  -0.47 -0.34 -0.31 -0.45
##  8  1887 -1.07 -0.580 -0.36  -0.42 -0.27 -0.2  -0.23 -0.52 -0.17 -0.4  -0.19
##  9  1888 -0.53 -0.59  -0.580 -0.24 -0.16 -0.04  0.04 -0.19 -0.12  0.04 -0.03
## 10  1889 -0.31  0.35   0.07   0.15 -0.05 -0.12 -0.1  -0.16 -0.26 -0.34 -0.61
## # ... with 130 more rows, and 1 more variable: Dec <dbl>

## # A tibble: 1,680 x 3
##     Year month delta
##    <dbl> <chr> <dbl>
##  1  1880 Jan   -0.54
##  2  1880 Feb   -0.38
##  3  1880 Mar   -0.26
##  4  1880 Apr   -0.37
##  5  1880 May   -0.11
##  6  1880 Jun   -0.22
##  7  1880 Jul   -0.23
##  8  1880 Aug   -0.24
##  9  1880 Sep   -0.26
## 10  1880 Oct   -0.32
## # ... with 1,670 more rows
…
Overall, we see a gradual rise in the average temperature across all twelve months from 1880 to 2019 owing to Global Warming. This rise has been greater for winter months such as January, February, November and December, compared to summer months such as May, June, July and August.

Another point worth mentioning is that the winter months depict greater deviation (the points are more scattered around the trendline) compared to summer months which have relatively lower deviation (the points are closer to the trendline)

Since it is sometimes useful to group data into different time periods to study historical data, we created a new data frame called comparison that groups data into five time periods: 1881-1920, 1921-1950, 1951-1980, 1981-2010 and 2011-present.

## # A tibble: 1,668 x 5
##     Year month delta date       interval 
##    <dbl> <ord> <dbl> <date>     <chr>    
##  1  1881 Jan   -0.19 1881-01-01 1881-1920
##  2  1881 Feb   -0.25 1881-02-01 1881-1920
##  3  1881 Mar    0.02 1881-03-01 1881-1920
##  4  1881 Apr   -0.02 1881-04-01 1881-1920
##  5  1881 May   -0.06 1881-05-01 1881-1920
##  6  1881 Jun   -0.36 1881-06-01 1881-1920
##  7  1881 Jul   -0.06 1881-07-01 1881-1920
##  8  1881 Aug   -0.03 1881-08-01 1881-1920
##  9  1881 Sep   -0.23 1881-09-01 1881-1920
## 10  1881 Oct   -0.4  1881-10-01 1881-1920
## # ... with 1,658 more rows
…
