…
Since the p-value is very low (significantly less than 5%), we reject the null hypothesis. Therefore, the difference of 1.7kgs between the means of both samples wasn’t just by chance or sampling error.

Hypothesis test with infer

Next, we used a new function, hypothesize, which falls into the ‘infer’ workflow to conduct a hypothesis test.

## # A tibble: 1 x 1
##    stat
##   <dbl>
## 1  1.77

After we initialized the test, we needed to simulate the test on the null distribution.

## # A tibble: 1,000 x 2
##    replicate   stat
##        <int>  <dbl>
##  1         1 -0.122
##  2         2 -0.149
##  3         3 -0.264
##  4         4 -0.104
##  5         5 -0.441
##  6         6  0.185
##  7         7 -0.485
##  8         8 -0.224
##  9         9  0.773
## 10        10 -0.119
## # ... with 990 more rows
…
