UN GDP Data Analysis
…
## 
## Attaching package: 'reshape2'

## The following object is masked from 'package:openintro':
## 
##     tips

## The following object is masked from 'package:tidyr':
## 
##     smiths

## # A tibble: 176,880 x 5
##    CountryID Country     IndicatorName Years Monies
##        <dbl> <chr>       <chr>         <chr>  <dbl>
##  1         4 Afghanistan Consumption   1970    5.56
##  2         4 Afghanistan Consumption   1971    5.33
##  3         4 Afghanistan Consumption   1972    5.20
##  4         4 Afghanistan Consumption   1973    5.75
##  5         4 Afghanistan Consumption   1974    6.15
##  6         4 Afghanistan Consumption   1975    6.32
##  7         4 Afghanistan Consumption   1976    6.37
##  8         4 Afghanistan Consumption   1977    6.90
##  9         4 Afghanistan Consumption   1978    7.09
## 10         4 Afghanistan Consumption   1979    6.92
## # ... with 176,870 more rows

First we tidied the data, as it was in wide format and we needed it in a long, tidy format.
All figures were converted to billions (divided values by 1e9, or \(10^9\)), and indicators were renamed to something shorter.

## Rows: 176,880
## Columns: 5
## $ CountryID     <dbl> 4, 4, 4, 4, 4, 4, 4, 4, 4, 4, 4, 4, 4, 4, 4, 4, 4, 4,...
## $ Country       <chr> "Afghanistan", "Afghanistan", "Afghanistan", "Afghani...
## $ IndicatorName <chr> "Consumption", "Consumption", "Consumption", "Consump...
## $ Years         <chr> "1970", "1971", "1972", "1973", "1974", "1975", "1976...
## $ Monies        <dbl> 5.559069, 5.332823, 5.197066, 5.746510, 6.147288, 6.3...

## # A tibble: 2,448 x 5
##    CountryID Country IndicatorName Years Monies
##        <dbl> <chr>   <chr>         <chr>  <dbl>
##  1       276 Germany Consumption   1970   1152.
##  2       276 Germany Consumption   1971   1218.
##  3       276 Germany Consumption   1972   1282.
##  4       276 Germany Consumption   1973   1329.
##  5       276 Germany Consumption   1974   1345.
##  6       276 Germany Consumption   1975   1398.
##  7       276 Germany Consumption   1976   1450.
##  8       276 Germany Consumption   1977   1504.
##  9       276 Germany Consumption   1978   1560.
## 10       276 Germany Consumption   1979   1614.
## # ... with 2,438 more rows

Code to reproduce the plot:

## # A tibble: 2,448 x 5
##    CountryID Country IndicatorName Years Monies
##        <dbl> <chr>   <chr>         <chr>  <dbl>
##  1       276 Germany Consumption   1970   1152.
##  2       276 Germany Consumption   1971   1218.
##  3       276 Germany Consumption   1972   1282.
##  4       276 Germany Consumption   1973   1329.
##  5       276 Germany Consumption   1974   1345.
##  6       276 Germany Consumption   1975   1398.
##  7       276 Germany Consumption   1976   1450.
##  8       276 Germany Consumption   1977   1504.
##  9       276 Germany Consumption   1978   1560.
## 10       276 Germany Consumption   1979   1614.
## # ... with 2,438 more rows
…
## # A tibble: 144 x 9
##    CountryID Country Years Consumption Government Gross_capital Exports Imports
##        <dbl> <chr>   <chr>       <dbl>      <dbl>         <dbl>   <dbl>   <dbl>
##  1       276 Germany 1970        1152.       280.          393.    174.    188.
##  2       276 Germany 1971        1218.       298.          416.    178.    202.
##  3       276 Germany 1972        1282.       313.          427.    189.    215.
##  4       276 Germany 1973        1329.       332.          430.    210.    222.
##  5       276 Germany 1974        1345.       351.          393.    234.    223.
##  6       276 Germany 1975        1398.       366.          375.    220.    230.
##  7       276 Germany 1976        1450.       374.          388.    243.    255.
##  8       276 Germany 1977        1504.       382.          405.    252.    264.
##  9       276 Germany 1978        1560.       398.          425.    259.    279.
## 10       276 Germany 1979        1614.       414.          451.    272.    306.
## # ... with 134 more rows, and 1 more variable: GDP <dbl>
…
## The following object is masked from 'package:mosaic':
## 
##     rescale

## The following object is masked from 'package:purrr':
## 
##     discard

## The following object is masked from 'package:readr':
## 
##     col_factor

## # A tibble: 144 x 4
##    Country Years Compositions Percentages
##    <chr>   <chr> <chr>              <dbl>
##  1 Germany 1970  GDP_diff           0.181
##  2 Germany 1971  GDP_diff           0.206
##  3 Germany 1972  GDP_diff           0.210
##  4 Germany 1973  GDP_diff           0.202
##  5 Germany 1974  GDP_diff           0.204
##  6 Germany 1975  GDP_diff           0.231
##  7 Germany 1976  GDP_diff           0.212
##  8 Germany 1977  GDP_diff           0.215
##  9 Germany 1978  GDP_diff           0.223
## 10 Germany 1979  GDP_diff           0.215
## # ... with 134 more rows
…
